﻿000111111010
010011010100
011101001110
100000000000
011001111011
001110101000
000100100011
000001100110
000111100001
010010110010
011100111010
100000000010
011010011000
001111001010
000100111011
000001100011
000111000011
010010001111
011100100100
100000001001
011010110100
001111101111
000101010010
000001100001
000110100111
010001101011
011100001011
100000001001
011011010001
010000010000
000101101010
000001011110
000110001110
010001000101
011011110011
100000000111
011011101011
010000111000
000110000010
000001011111
000101110100
010000011111
011011011010
100000001001
011100000010
010001011010
000110011110
000001011110
000101011001
001111111110
011011000001
100000000110
011100011010
010001111101
000110110110
000001100011
000101000011
001111011001
011010100011
100000000101
011100110011
010010100011
000111010101
000001101000
000100101101
001110110110
011010000101
011111111111
011101000111
010011000100
000111110011
000001101011
000100010100
001110001110
011001101010
011111111000
011101011101
010011101010
001000001101
000001110010
000100000001
001101101100
011001001111
011111110100
011101110001
010100001101
001000101100
000001111011
000011101101
001101001011
011000101110
011111101011
011110000011
010100110000
001001001011
000010000100
000011011111
001100100101
011000001110
011111011111
011110011000
010101010010
001001101011
000010001111
000011001100
001100000011
010111101111
011111010111
011110100111
010101111000
001010001011
000010011001
000010111100
001011100100
010111010000
011111001000
011110110110
010110010111
001010101101
000010100110
000010101100
001011000010
010110101111
011110111011
011111000100
010110111010
001011001100
000010110010
000010011101
001010011101
010110001010
011110101110
011111010001
010111011010
001011101101
000011000100
000010010011
001001111011
010101101011
011110100000
011111011011
010111111011
001100010001
000011010101
000010000110
001001011101
010101000101
011110001101
011111101000
011000011011
001100110010
000011100011
000010000000
001000111111
010100100110
011101111011
011111110001
011000111010
001101010110
000011110110
000001110111
001000011100
010011111111
011101100111
011111110101
011001011010
001101111100
000100001100
000001110000
000111111111
010011011110
011101010101
011111111110
011001111001
001110011110
000100011111
000001101001
000111100010
010010111010
011100111101
100000000101
011010010100
001111000011
000100110100
000001100100
000111001000
010010010100
011100101001
100000001001
011010110001
001111101000
000101001101
000001100001
000110101101
010001110010
011100010001
100000001000
011011001010
010000001011
000101100011
000001011101
000110010010
010001001101
011011111010
100000001010
011011100110
010000110000
000101111110
000001011110
000101111000
010000100111
011011100001
100000001011
011011111101
010001010100
000110010110
000001011101
000101011100
010000000100
011011000111
100000001000
011100011000
010001110111
000110110010
000001100010
000101000101
001111011111
011010101011
100000000110
011100101101
010010011010
000111001100
000001100101
000100110000
001110111101
011010001111
100000000000
011101000011
010010111110
000111101010
000001101011
000100011010
001110010111
011001110010
011111111101
011101011001
010011100010
001000000101
000001110000
000100000100
001101110101
011001010010
011111110011
011101101110
010100000101
001000100010
000001110111
000011110010
001101010011
011000110101
011111101011
011101111111
010100101011
001001000010
000010000000
000011100000
001100101111
011000011000
011111100100
011110010011
010101001100
001001100101
000010001011
000011010000
001100001100
010111110101
011111011001
011110100010
010101101101
001010000011
000010011000
000010111101
001011101010
010111010101
011111001011
011110110001
010110010000
001010100011
000010100011
000010110001
001011001000
010110110101
011111000000
011111000001
010110110011
001011000110
000010101110
000010100010
001010100111
010110010011
011110110101
011111001101
010111010110
001011101000
000010111111
000010010101
001010000100
010101110001
011110100100
011111011001
010111110101
001100001001
000011001100
000010001001
001001100110
010101001110
011110010001
011111100011
011000010100
001100101111
000011100001
000001111101
001001000101
010100101010
011110000000
011111101100
011000110110
001101001110
000011110011
000001110110
001000100100
010100001010
011101101111
011111110101
011001010011
001101110011
000100000101
000001101110
001000000110
010011100101
011101011001
011111111110
011001110010
001110010101
000100011011
000001101001
000111101011
010011000010
011101000101
100000000001
011010010000
001110111001
000100110000
000001100011
000111001110
010010011010
011100101110
100000000110
011010101001
001111011100
000101001001
000001100010
000110110010
010001110111
011100011000
100000001000
011011000110
010000000011
000101011101
000001100010
000110010110
010001010010
011011111111
100000001011
011011100001
010000100110
000101110110
000001100001
000101111110
010000110000
011011100010
100000001001
011011111001
010001001010
000110010010
000001011110
000101100011
010000001011
011011001100
100000001010
011100010010
010001101110
000110101111
000001100001
000101001101
001111101000
011010110000
100000000110
011100101001
010010010100
000111000111
000001100100
000100110110
001111000100
011010010011
100000000010
011100111111
010010111001
000111100100
000001101001
000100011111
001110100001
011001111000
011111111110
011101010011
010011011101
001000000001
000001101111
000100001000
001101111010
011001011010
011111110111
011101101011
010011111111
001000011110
000001110111
000011110100
001101011010
011000111101
011111110000
011101111101
010100100100
001000111110
000001111100
000011100011
001100110011
011000011110
011111101000
011110010000
010101000110
001001011101
000010001000
000011010001
001100010001
010111111110
011111011011
011110100000
010101100111
001001111100
000010010100
000010111111
001011110000
010111011101
011111010010
011110110000
010110001000
001010100001
000010100000
000010110010
001011001111
010110111001
011111000011
011110111101
010110101100
001010111101
000010101101
000010100100
001010101101
010110011001
011110110111
011111001100
010111001100
001011100000
000010111011
000010011000
001010001011
010101111000
011110101000
011111010111
010111101100
001100000100
000011001100
000010001011
001001101011
010101010011
011110010100
011111100100
011000001101
001100100100
000011011100
000001111111
001001001011
010100110010
011110000110
011111101111
011000110000
001101000111
000011101111
000001111001
001000101100
010100001110
011101110011
011111110101
011001001110
001101101011
000100000011
000001110001
001000001100
010011101100
011101011111
011111111101
011001101001
001110010000
000100010111
000001101011
000111110001
010011001011
011101001001
100000000011
011010000110
001110110011
000100101100
000001100111
000111010100
010010100101
011100110001
100000000100
011010100010
001111011000
000101000010
000001100010
000110111000
010010000001
011100011101
100000000111
011011000010
001111111100
000101011010
000001011110
000110011101
010001011010
011100000100
100000001010
011011011011
010000011110
000101110010
000001100000
000110000011
010000111000
011011101011
100000001010
011011110110
010001000011
000110001101
000001011101
000101101000
010000010100
011011010010
100000001010
011100001110
010001101010
000110100110
000001011111
000101001111
001111110000
011010110100
100000001000
011100100100
010010001100
000111000001
000001100101
000100111010
001111001100
011010011011
100000000010
011100111100
010010110000
000111011110
000001101001
000100100011
001110101001
011001111110
100000000001
011101010011
010011010100
000111111100
000001101101
000100001110
001110000011
011001011111
011111110111
011101100100
010011111000
001000011001
000001110110
000011111011
001101100001
011001000000
011111110000
011101111000
010100011100
001000110111
000001111101
000011100111
001100111100
011000100001
011111101000
011110001010
010100111111
001001011001
000010000111
000011010110
001100011001
011000000010
011111011111
011110011011
010101100001
001001110100
000010010011
000011000101
001011111000
010111100001
011111010100
011110101101
010110000011
001010011000
000010011101
000010110011
001011010110
010111000010
011111000111
011110111010
010110100010
001010111001
000010101011
000010100101
001010110011
010110100000
011110111000
011111001001
010111000101
001011011011
000010110111
000010011000
001010010001
010101111100
011110101011
011111010101
010111100101
001011111101
000011001010
000010001101
001001110000
010101011011
011110011010
011111100000
011000001010
001100011100
000011011001
000010000101
001001010010
010100111011
011110001000
011111101001
011000100110
001101000010
000011101010
000001111010
001000110010
010100010100
011101110011
011111110010
011001000111
001101100101
000011111110
000001110101
001000010011
010011110010
011101100001
011111111010
011001100100
001110001010
000100010010
000001101011
000111111000
010011001110
011101001100
100000000001
011010000011
001110101110
000100101000
000001100101
000111011011
010010101100
011100111000
100000000011
011010011101
001111010010
000101000000
000001100100
000110111011
010010000111
011100100001
100000001001
011010111011
001111110110
000101010111
000001100001
000110100010
010001100101
011100001001
100000001011
011011010110
010000010110
000101110000
000001011101
000110000101
010001000000
011011101110
100000001010
011011101110
010000111110
000110001001
000001011101
000101101110
010000011010
011011011001
100000001010
011100001001
010001100010
000110100000
000001100000
000101010110
001111110111
011010111011
100000001010
011100100000
010010000110
000110111101
000001100010
000100111100
001111010010
011010011111
100000000011
011100111000
010010100110
000111011000
000001100100
000100100101
001110101100
011010000011
100000000010
011101001101
010011001111
000111110110
000001101110
000100010001
001110001010
011001100011
011111111001
011101100010
010011110001
001000010100
000001110100
000011111011
001101101000
011001000111
011111110011
011101110101
010100010100
001000110001
000001111011
000011101100
001101000100
011000101000
011111101010
011110001001
010100111000
001001001110
000010000101
000011010111
001100011110
011000001001
011111100010
011110011001
010101011000
001001101111
000010010001
000011000110
001100000000
010111101011
011111010101
011110101010
010101111101
001010001110
000010011100
000010110110
001011011010
010111001001
011111001001
011110111010
010110011101
001010110000
000010100101
000010101001
001010111100
010110100101
011110111111
011111000101
010111000010
001011010011
000010110100
000010011011
001010011000
010110001000
011110101111
011111010011
010111100000
001011110110
000011000100
000010001111
001001110110
010101100011
011110011111
011111011100
011000000011
001100010110
000011010101
000010000110
001001011000
010101000001
011110001101
011111100110
011000100010
001100111001
000011100101
000001111100
001000111000
010100011101
011101111010
011111110010
011000111110
001101011110
000011111000
000001110101
001000011010
010011111100
011101101000
011111111000
011001011111
001101111110
000100001101
000001101100
000111111010
010011011001
011101010001
011111111101
011001111011
001110100111
000100100010
000001101010
000111100000
010010110011
011100111100
100000000010
011010011000
001111001001
000100111000
000001100011
000111000011
010010001111
011100100101
100000000111
011010110110
001111101011
000101010001
000001100000
000110101000
010001101011
011100001111
100000000111
011011010000
010000010001
000101101000
000001011111
000110001010
010001001001
011011110101
100000001001
011011101011
010000110110
000101111111
000001100000
000101110011
010000100011
011011011101
100000001011
011100000100
010001011000
000110011011
000001100000
000101011011
001111111110
011011000000
100000000110
011100011100
010001111111
000110111000
000001100001
000101000011
001111011001
011010100111
100000000011
011100110001
010010100000
000111010100
000001100100
000100101100
001110110101
011010001010
100000000001
011101000111
010011000010
000111110001
000001101010
000100011001
001110010010
011001101101
011111111010
011101011011
010011100111
001000001111
000001110011
000100000001
001101101101
011001001101
011111110100
011101110001
010100001100
001000101100
000001111001
000011101110
001101001010
011000101110
011111101100
011110000011
010100110000
001001001011
000010000011
000011011111
001100101010
011000010001
011111100011
011110010111
010101010010
001001101001
000010001011
000011001011
001100001000
010111110001
011111010101
011110100110
010101110101
001010001001
000010011000
000010111001
001011100100
010111010000
011111001010
011110110111
010110010111
001010101011
000010100100
000010101010
001011000010
010110101101
011110111011
011111000010
010110111011
001011001010
000010110000
000010011101
001010100000
010110001101
011110110001
011111010000
010111011011
001011101110
000010111110
000010010011
001001111101
010101101011
011110011111
011111011111
010111111010
001100010000
000011010010
000010001000
001001011100
010101000110
011110010001
011111100111
011000011001
001100110011
000011100101
000001111111
001000111101
010100100100
011101111011
011111101110
011000111001
001101010101
000011110110
000001110110
001000100000
010100000010
011101101001
011111110111
011001011000
001101111010
000100001011
000001101101
001000000000
010011011111
011101010110
011111111110
011001110100
001110011110
000100011100
000001101010
000111100110
010010111100
011100111110
100000000011
011010010100
001111000001
000100110110
000001100100
000111001000
010010011000
011100101010
100000001001
011010101101
001111100010
000101001100
000001100010
000110101100
010001110011
011100010011
100000000111
011011001001
010000001001
000101100011
000001011111
000110010100
010001001111
011011111010
100000001001
011011100010
010000101101
000101111010
000001011111
000101110111
010000101010
011011100010
100000001100
011011111111
010001010001
000110010111
000001011101
000101011101
010000000100
011011000101
100000001001
011100011001
010001110100
000110110000
000001100000
000101000111
001111100011
011010101101
100000000111
011100110000
010010011001
000111001101
000001100100
000100101110
001110111101
011010001110
100000000001
011101000101
010011000000
000111100110
000001101001
000100011011
001110011011
011001110011
011111111110
011101011001
010011100010
001000000110
000001101111
000100000110
001101110111
011001010011
011111110101
011101101100
010100000100
001000100011
000001110101
000011110010
001101010100
011000111001
011111101110
011110000010
010100101001
001001000010
000010000010
000011011111
001100101101
011000010111
011111100011
011110010100
010101001001
001001100100
000010001010
000011001101
001100001110
010111111000
011111011001
011110100011
010101101111
001010000010
000010010110
000010111110
001011101011
010111010100
011111010000
011110110010
010110010001
001010100011
000010100001
000010110000
001011001000
010110110101
011110111110
011111000010
010110110011
001011000100
000010101111
000010100001
001010100101
010110010101
011110110101
011111001101
010111010100
001011101001
000010111100
000010010111
001010000101
010101110010
011110100100
011111011100
010111110011
001100000111
000011001101
000010001001
001001100110
010101010000
011110010011
011111100011
011000010011
001100101100
000011011101
000001111110
001001000100
010100101100
011110000001
011111101110
011000110011
001101010000
000011110010
000001110110
001000100111
010100001001
011101101101
011111110101
011001010001
001101110011
000100000110
000001101111
001000000110
010011100110
011101011010
011111111111
011001101110
001110010111
000100011000
000001101000
000111101011
010011000011
011101000011
100000000001
011010001100
001110111000
000100110000
000001100101
000111001101
010010011100
011100110000
100000000101
011010101010
001111011011
000101000101
000001100011
000110110011
010001111001
011100010111
100000001001
011011000101
010000000001
000101100000
000001011110
000110010110
010001010110
011011111101
100000001001
011011011111
010000100110
000101111000
000001011101
000101111100
010000110011
011011100111
100000001011
011011111000
010001001010
000110010010
000001011101
000101100111
010000001100
011011001100
100000000110
011100010001
010001101111
000110101100
000001100011
000101001110
001111101000
011010110000
100000000100
011100101001
010010010011
000111001000
000001100011
000100110101
001111000100
011010010110
100000000001
011101000000
010010110100
000111100001
000001101010
000100011101
001110100010
011001111000
011111111111
011101010101
010011011010
001000000000
000001110000
000100001001
001101111110
011001011001
011111110110
011101101000
010011111110
001000011101
000001110110
000011110110
001101011000
011000111101
011111110001
011101111110
010100100011
001000111100
000001111101
000011100010
001100110100
011000011111
011111100100
011110010001
010101000101
001001011010
000010001001
000011010010
001100010011
010111111101
011111011011
011110011111
010101101001
001001111011
000010010100
000011000000
001011110010
010111011111
011111010000
011110110001
010110001010
001010011111
000010100010
000010110001
001011001110
010110111101
011111000010
011110111101
010110101100
001010111100
000010101101
000010100101
001010101111
010110011010
011110111000
011111001100
010111001010
001011011101
000010111010
000010011001
001010001011
010101111010
011110100111
011111010111
010111101011
001100000011
000011001010
000010001011
001001101101
010101011001
011110010111
011111100011
011000001110
001100100100
000011011100
000010000001
001001001110
010100110101
011110000101
011111101100
011000101111
001101000111
000011101011
000001110111
001000101100
010100001111
011101110101
011111110101
011001001011
001101101001
000011111111
000001110000
001000001100
010011101100
011101011101
011111111011
011001101010
001110001100
000100010100
000001101100
000111110010
010011001000
011101001010
100000000011
011010000101
001110110001
000100101011
000001101000
000111010101
010010100111
011100110101
100000000100
011010100011
001111010110
000101000000
000001100100
000110110111
010010000010
011100011110
100000001010
011010111110
001111111011
000101010110
000001100001
000110011100
010001011100
011100000110
100000001011
011011011010
010000100000
000101110000
000001011111
000110000011
010000111010
011011101101
100000001011
011011110011
010001000010
000110001001
000001100001
000101101011
010000010110
011011010011
100000001011
011100001110
010001100101
000110100100
000001100001
000101010010
001111110000
011010111000
100000000110
011100100111
010010001001
000110111110
000001100100
000100111001
001111001110
011010011010
100000000011
011100111010
010010110000
000111011100
000001100100
000100100011
001110101001
011010000000
011111111111
011101010010
010011010011
000111111010
000001101111
000100001111
001110000100
011001100001
011111111010
011101100010
010011111000
001000011000
000001110011
000011111000
001101100001
011001000011
011111110011
011101111001
010100011000
001000111000
000001111101
000011101000
001100111101
011000100111
011111101001
011110001100
010100111110
001001010101
000010000101
000011011000
001100011011
011000000101
011111100001
011110011110
010101100000
001001110010
000010010010
000011000011
001011111010
010111100100
011111010011
011110101010
010110000001
001010010100
000010011110
000010110101
001011010111
010111000011
011111000100
011110111101
010110100100
001010110110
000010101001
000010100101
001010110101
010110100000
011110111010
011111001000
010111000101
001011011000
000010111000
000010011011
001010010100
010101111110
011110101011
011111010100
010111100110
001011111011
000011000110
000010001110
001001110011
010101100000
011110011011
011111100000
011000001000
001100011011
000011010110
000010000100
001001010100
010100111011
011110000111
011111101001
011000100110
001101000000
000011101010
000001111010
001000110110
010100011001
011101110101
011111110010
011001000101
001101100101
000011111011
000001110101
001000010110
010011110101
011101100001
011111111001
011001100010
001110000101
000100010010
000001101101
000111110110
010011010000
011101010001
100000000000
011010000001
001110101001
000100100111
000001101000
000111011010
010010101011
011100111000
100000000100
011010011111
001111001101
000100111110
000001100011
000110111100
010010001000
011100100001
100000001001
011010111001
001111110100
000101010110
000001011110
000110100101
010001100100
011100001000
100000001001
011011010101
010000010110
000101101101
000001011101
000110000110
010001000011
011011101111
100000001011
011011101111
010000111011
000110000011
000001011110
000101110001
010000011101
011011011000
100000001010
011100001000
010001011100
000110011111
000001100010
000101011001
001111111001
011010111110
100000000110
011100100000
010010000100
000110111010
000001100100
000100111100
001111010101
011010100001
100000000101
011100111000
010010100110
000111011001
000001101001
000100101001
001110110001
011010000110
100000000010
011101001110
010011001100
000111110101
000001101100
000100010010
001110001100
011001101000
011111111010
011101011110
010011101100
001000010000
000001110010
000011111111
001101101001
011001000111
011111110010
011101110110
010100010001
001000101110
000001111010
000011101101
001101001000
011000101010
011111101010
011110000101
010100110101
001001001110
000010000100
000011011011
001100100010
011000001010
011111011111
011110011010
010101010111
001001101101
000010001100
000011001010
001100000010
010111101010
011111010110
011110101001
010101111011
001010001110
000010011011
000010110110
001011011111
010111001010
011111001001
011110111010
010110011011
001010101111
000010100101
000010101010
001010111011
010110101001
011110111101
011111000101
010110111101
001011010010
000010110100
000010011110
001010011010
010110001001
011110110000
011111010011
010111011110
001011110011
000011000101
000010010010
001001111000
010101100111
011110011100
011111011101
010111111111
001100010111
000011010111
000010000110
001001011010
010101000101
011110001110
011111101000
011000100000
001100110111
000011101000
000001111101
001000111010
010100100010
011101111011
011111110001
011001000000
001101011100
000011110111
000001110011
001000011011
010011111101
011101101001
011111111010
011001011011
001101111110
000100001110
000001101100
000111111011
010011011001
011101010100
100000000001
011001111101
001110100101
000100100000
000001101001
000111100000
010010110011
011100111011
100000000100
011010011001
001111000101
000100111001
000001100100
000111000011
010010010000
011100100101
100000000111
011010110011
001111101001
000101010001
000001011111
000110100110
010001101011
011100001100
100000001001
011011001101
010000010000
000101100111
000001011101
000110001100
010001000110
011011110101
100000001001
011011101000
010000110011
000110000000
000001011101
000101110101
010000100100
011011011110
100000001100
011100000011
010001010110
000110011100
000001011111
000101011011
001111111110
011011000001
100000001000
011100011010
010001111110
000110110101
000001100011
000101000010
001111011101
011010101001
100000000111
011100110001
010010100000
000111010000
000001100110
000100101110
001110111000
011010001001
100000000010
011101001001
010011000100
000111101011
000001101011
000100010110
001110010100
011001101110
011111111100
011101011101
010011101001
001000001010
000001110001
000100000010
001101110001
011001010000
011111110011
011101101110
010100001011
001000101001
000001111000
000011110000
001101001101
011000110001
011111101011
011110000011
010100101100
001001001000
000010000001
000011011110
001100101010
011000010010
011111100011
011110010101
010101010010
001001100110
000010001011
000011001011
001100000110
010111110010
011111011001
011110100011
010101110011
001010001011
000010011000
000010111100
001011100101
010111010010
011111001010
011110110101
010110010110
001010101010
000010100011
000010101101
001011000011
010110110001
011111000000
011111000101
010110110110
001011001010
000010110001
000010011111
001010100000
010110001100
011110110010
011111010000
010111011001
001011101100
000011000000
000010010011
001001111111
010101101111
011110100011
011111011110
010111111001
001100001110
000011010010
000010000111
001001100001
010101001001
011110001111
011111100110
011000011010
001100101111
000011100011
000001111101
001000111110
010100100111
011110000001
011111101111
011000111011
001101010011
000011110011
000001111000
001000100000
010100000100
011101101010
011111110111
011001010101
001101110101
000100001000
000001101101
001000000010
010011100001
011101010101
011111111101
011001110101
001110011100
000100011011
000001101001
000111101000
010010111010
011101000001
100000000011
011010010010
001110111101
000100110100
000001100011
000111001011
010010010110
011100101010
100000001000
011010101100
001111100011
000101001011
000001100010
000110101111
010001110011
011100010100
100000001010
011011001010
010000001000
000101100010
000001011110
000110010100
010001010000
011011111011
100000001010
011011100011
010000101100
000101111010
000001011100
000101111010
010000101010
011011100010
100000001010
011011111101
010001001110
000110010011
000001100000
000101100000
010000001000
011011001001
100000001000
011100010110
010001110011
000110101111
000001100001
000101001010
001111100101
011010101111
100000001000
011100101101
010010011010
000111001011
000001100111
000100110010
001110111101
011010010011
100000000010
011101000011
010010111101
000111100110
000001101011
000100011011
001110011011
011001110101
011111111010
011101011001
010011100001
001000000101
000001101111
000100001000
001101110111
011001011000
011111110110
011101101101
010100000011
001000100011
000001110101
000011110100
001101010011
011000111000
011111101111
011110000000
010100100101
001001000011
000010000001
000011100010
001100110010
011000010111
011111100110
011110010001
010101001010
001001100000
000010001001
000011010000
001100001111
010111111000
011111011010
011110100000
010101101111
001010000010
000010010101
000011000000
001011101110
010111011001
011111001111
011110110010
010110001101
001010100010
000010100010
000010101111
001011001001
010110110101
011111000001
011110111111
010110110010
001011000011
000010101111
000010100010
001010101000
010110010011
011110110101
011111010000
010111010001
001011100011
000010111110
000010010111
001010001001
010101110010
011110100101
011111011011
010111110010
001100001000
000011001110
000010001001
001001100101
010101010001
011110010100
011111100010
011000010011
001100101011
000011011100
000010000000
001001000111
010100110000
011110000011
011111101110
011000110010
001101001011
000011110010
000001110101
001000101000
010100001011
011101110000
011111110100
011001010001
001101101110
000100000100
000001110001
001000001001
010011101000
011101011010
011111111110
011001101111
001110010101
000100011001
000001101010
000111101101
010011000100
011101000110
100000000000
011010001011
001110111000
000100101110
000001100100
000111010001
010010100000
011100110001
100000000111
011010101001
001111011100
000101000101
000001100011
000110110100
010001111101
011100010111
100000001010
011011000010
010000000010
000101011111
000001100000
000110011010
010001010101
011100000011
100000001011
011011011101
010000100101
000101110110
000001011111
000110000000
010000110010
011011100101
100000001011
011011111010
010001000111
000110001100
000001011101
000101100011
010000001101
011011001111
100000001011
011100001111
010001101110
000110101010
000001011111
000101001111
001111101010
011010110001
100000001000
011100100111
010010010000
000111000100
000001100110
000100110111
001111001000
011010010110
100000000011
011100111110
010010110101
000111100001
000001101000
000100011101
001110100011
011001111001
100000000000
011101010111
010011010111
001000000001
000001101101
000100001100
001110000000
011001011011
011111111010
011101100110
010011111100
001000011110
000001110110
000011110101
001101011011
011000111110
011111101110
011101111100
010100100001
001000111010
000001111111
000011100101
001100111001
011000011110
011111100111
011110001101
010101000011
001001011011
000010001000
000011010010
001100010011
010111111101
011111011100
011110100000
010101101000
001001111011
000010010010
000011000010
001011110001
010111011110
011111010010
011110110000
010110001000
001010011100
000010011111
000010110011
001011010000
010110111100
011111000110
011110111110
010110101010
001010111111
000010101100
000010100101
001010101111
010110011011
011110110111
011111001011
010111001010
001011011110
000010111011
000010010111
001010001011
010101111001
011110101000
011111011000
010111101100
001100000010
000011001001
000010001101
001001101011
010101011001
011110011001
011111100010
011000001101
001100100010
000011011011
000010000010
001001001111
010100110110
011110000100
011111101010
011000101100
001101000111
000011101100
000001111001
001000101101
010100010011
011101110100
011111110111
011001001011
001101101001
000100000000
000001110010
001000010001
010011101100
011101011111
011111111010
011001101010
001110001011
000100010101
000001101011
000111110001
010011001010
011101001100
100000000000
011010000111
001110101110
000100101010
000001100101
000111010101
010010100101
011100110101
100000000011
011010100011
001111010101
000100111111
000001100011
000110111000
010010000100
011100011101
100000001000
011010111111
001111111000
000101010111
000001100001
000110011111
010001011111
011100000110
100000001001
011011011010
010000011110
000101101110
000001011100
000110000011
010000111101
011011101010
100000001011
011011110100
010000111111
000110001001
000001011101
000101101011
010000010111
011011010001
100000001001
011100001100
010001100011
000110100100
000001011111
000101010010
001111110011
011010110111
100000001010
011100100010
010010001001
000110111110
000001100101
000100111010
001111001101
011010011111
100000000110
011100111001
010010101110
000111011100
000001100110
000100100100
001110101010
011001111101
011111111111
011101010010
010011010000
000111111001
000001101010
000100001110
001110001000
011001100010
011111111000
011101100100
010011110110
001000011000
000001110011
000011111010
001101100011
011001000011
011111110010
011101111010
010100010111
001000110011
000001111101
000011100111
001100111111
011000100011
011111101000
011110001010
010100111100
001001010110
000010000010
000011010100
001100011101
011000000110
011111011110
011110011011
010101011101
001001110101
000010010001
000011000101
001011111011
010111100101
011111010010
011110101100
010110000010
001010010101
000010011011
000010110111
001011010111
010111000011
011111000110
011110111010
010110100011
001010110111
000010100110
000010101010
001010110101
010110100011
011110111011
011111000111
010111000101
001011011001
000010110110
000010011001
001010010100
010110000010
011110101011
011111010011
010111100011
001011111010
000011001000
000010001110
001001110101
010101011110
011110011010
011111100010
011000000110
001100011011
000011011000
000010000011
001001010110
010100111110
011110001001
011111101011
011000100101
001101000000
000011101001
000001111011
001000110110
010100011011
011101110111
011111110011
011001000101
001101100001
000011111100
000001110100
001000010111
010011110111
011101100010
011111111010
011001100000
001110000110
000100010000
000001101100
000111110111
010011010011
011101001110
011111111111
011010000001
001110101010
000100100100
000001100110
000111011010
010010110000
011100111010
100000000100
011010011011
001111001111
000100111011
000001100011
000110111101
010010001010
011100100010
100000001010
011010111000
001111110010
000101010100
000001100010
000110100100
010001100101
011100001011
100000001001
011011010011
010000010100
000101101010
000001100000
000110001010
010001000011
011011110001
100000001010
011011101100
010000111011
000110000011
000001011101
000101110001
010000011110
011011010111
100000001011
011100000100
010001011110
000110011101
000001011110
000101011001
001111111100
011010111110
100000000111
011100100001
010010000011
000110111001
000001100001
000100111101
001111010111
011010100010
100000000110
011100110111
010010100111
000111010110
000001100100
000100101000
001110110010
011010000101
100000000010
011101001101
010011001011
000111110011
000001101011
000100010010
001110001111
011001101010
011111111100
011101011111
010011101110
001000001111
000001110011
000100000000
001101101011
011001001001
011111110101
011101110101
010100010001
001000101110
000001111010
000011101100
001101000101
011000101010
011111101011
011110001000
010100110011
001001001111
000010000100
000011011010
001100100011
011000001011
011111011111
011110010111
010101010100
001001101101
000010001111
000011001000
001100000010
010111101100
011111010100
011110100110
010101111011
001010001111
000010011001
000010111001
001011100000
010111001010
011111001000
011110111000
010110011010
001010101111
000010100111
000010101010
001010111100
010110101001
011110111100
011111001000
010110111111
001011010000
000010110100
000010011011
001010011010
010110001000
011110101110
011111010010
010111011100
001011110010
000011000100
000010010001
001001111001
010101100110
011110011111
011111011100
010111111110
001100010101
000011010101
000010000111
001001011011
010101000011
011110001111
011111101000
011000100000
001100110110
000011100100
000001111101
001000111100
010100100010
011101111011
011111110000
011000111110
001101011001
000011111000
000001110110
001000011011
010100000000
011101101001
011111110111
011001011011
001101111110
000100001010
000001101110
000111111111
010011011011
011101010100
100000000000
011001111001
001110100001
000100100000
000001100110
000111100001
010010110100
011101000000
100000000101
011010010101
001111000100
000100111000
000001100100
000111000011
010010010011
011100101000
100000001000
011010110010
001111101001
000101001110
000001100000
000110101010
010001110000
011100001111
100000001001
011011001111
010000001110
000101100101
000001011110
000110001100
010001001001
011011111000
100000001011
011011101001
010000110011
000101111100
000001011110
000101110100
010000101000
011011011011
100000001011
011100000001
010001010110
000110011011
000001011100
000101011011
010000000001
011011000100
100000000111
011100011010
010001111011
000110110100
000001100000
000101000101
001111011110
011010101001
100000000100
011100110001
010010011111
000111010001
000001100111
000100101111
001110111010
011010001011
100000000011
011101000110
010011000010
000111101011
000001101010
000100011000
001110010110
011001101101
011111111011
011101011101
010011101000
001000001011
000001110001
000100000100
001101110001
011001010001
011111110101
011101110000
010100001000
001000101000
000001111001
000011101110
001101010000
011000110010
011111101110
011110000011
010100101101
001001001000
000010000011
000011011111
001100101100
011000010100
011111100010
011110010011
010101001101
001001101000
000010001011
000011001101
001100001000
010111110001
011111010111
011110100111
010101110011
001010001001
000010010110
000010111010
001011101000
010111010010
011111001101
011110110100
010110010110
001010100111
000010100100
000010101111
001011000101
010110110010
011110111101
011111000011
010110110101
001011000110
000010101110
000010100000
001010100010
010110010000
011110110010
011111010000
010111011000
001011101011
000010111101
000010010100
001010000000
010101110000
011110100011
011111011111
010111111000
001100001111
000011001101
000010001010
001001100010
010101001010
011110010010
011111100111
011000011010
001100101100
000011100010
000001111110
001001000011
010100101000
011110000001
011111101111
011000110110
001101010011
000011110100
000001110110
001000100100
010100000101
011101101100
011111110101
011001010101
001101110011
000100001001
000001101101
001000000110
010011100011
011101011001
011111111111
011001110011
001110011010
000100011100
000001101000
000111100110
010011000000
011101000100
100000000011
011010010000
001110111111
000100110011
000001100100
000111001011
010010011001
011100101100
100000001001
011010101011
001111100011
000101001001
000001100010
000110101110
010001110101
011100010010
100000001000
011011000111
010000000111
000101011111
000001011111
000110010110
010001010010
011011111111
100000001100
011011100010
010000101011
000101111010
000001100000
000101111011
010000101100
011011100011
100000001010
011011111110
010001001110
000110010011
000001011101
000101100010
010000001010
011011001001
100000001010
011100010010
010001110011
000110110000
000001011111
000101001001
001111100100
011010101110
100000000100
011100101110
010010010100
000111001010
000001100011
000100110001
001111000000
011010010001
100000000001
011101000100
010010111010
000111100110
000001101011
000100011100
001110011011
011001110100
100000000000
011101011001
010011011101
001000000100
000001110000
000100000110
001101110111
011001011000
011111111000
011101101010
010100000011
001000100001
000001110111
000011110101
001101010100
011000111001
011111110000
011101111110
010100100110
001001000000
000001111110
000011100000
001100110011
011000011011
011111101000
011110010000
010101001000
001001100010
000010001000
000011010000
001100001110
010111111010
011111011010
011110100010
010101101010
001010000000
000010010011
000010111101
001011101111
010111011001
011111010000
011110110010
010110001101
001010100000
000010100011
000010110000
001011001100
010110110110
011111000001
011110111110
010110110001
001011000010
000010101100
000010100001
001010101100
010110010110
011110110101
011111010000
010111010000
001011100101
000010111011
000010011000
001010001001
010101110100
011110100101
011111011011
010111101111
001100000111
000011001100
000010001010
001001101001
010101010010
011110010011
011111100100
011000010000
001100101010
000011011100
000010000001
001001000110
010100110001
011110000101
011111101100
011000101110
001101001101
000011101111
000001110111
001000101010
010100001101
011101101111
011111110100
011001001101
001101101111
000100000011
000001110001
001000001011
010011101000
011101011111
011111111110
011001101011
001110010011
000100011000
000001101011
000111101110
010011000011
011101000111
100000000001
011010001010
001110110111
000100101111
000001100110
000111010000
010010100011
011100101111
100000000110
011010100101
001111011001
000101000110
000001100010
000110110100
010001111011
011100011001
100000001010
011011000010
001111111101
000101011010
000001100000
000110011010
010001010111
011100000000
100000001011
011011011100
010000100010
000101110011
000001100000
000101111111
010000110111
011011100111
100000001001
011011110101
010001001001
000110001100
000001011100
000101100101
010000001110
011011001101
100000001010
011100010000
010001101010
000110101000
000001100000
000101010000
001111101100
011010110101
100000001001
011100100111
010010001101
000111000101
000001100011
000100110101
001111001010
011010011000
100000000100
011100111111
010010110010
000111011110
000001100111
000100011111
001110100011
011001111011
011111111100
011101010011
010011010101
000111111101
000001101101
000100001010
001110000010
011001011101
011111111000
011101100110
010011111010
001000011001
000001110110
000011110110
001101011111
011000111110
011111101111
011101111100
010100011101
001000111011
000001111111
000011100111
001100111001
011000011111
011111101001
011110001101
010101000001
001001011000
000010000110
000011010100
001100011001
010111111111
011111100000
011110011111
010101100101
001001111000
000010010011
000011000011
001011110011
010111100001
011111010010
011110101111
010110000100
001010011011
000010011110
000010110011
001011010000
010111000000
011111000011
011110111011
010110101000
001010111110
000010101001
000010100100
001010110001
010110011110
011110111001
011111001011
010111001010
001011011101
000010111010
000010011001
001010010000
010101111101
011110101000
011111010101
010111101011
001100000001
000011000110
000010001011
001001101101
010101011011
011110010111
011111100010
011000001010
001100100000
000011011001
000010000010
001001001101
010100111000
011110001001
011111101101
011000101011
001101000110
000011101100
000001111001
001000110010
010100010011
011101110101
011111110110
011001000111
001101101000
000100000001
000001110011
001000010001
010011110001
011101011111
011111111100
011001101000
001110001011
000100010100
000001101010
000111110100
010011001110
011101001100
100000000000
011010000011
001110110000
000100101001
000001100111
000111011001
010010101011
011100110101
100000000101
011010100010
001111010010
000100111110
000001100011
000110111011
010010000110
011100011100
100000001000
011010111011
001111110111
000101010100
000001011110
000110011110
010001100001
011100000100
100000001010
011011011011
010000011010
000101101110
000001100000
000110000101
010000111011
011011101110
100000001010
011011110001
010000111101
000110001001
000001100000
000101101011
010000011000
011011010110
100000001001
011100001010
010001100010
000110100010
000001011110
000101010011
001111110010
011010111011
100000000110
011100100001
010010001000
000110111101
000001100010
000100111011
001111001101
011010011111
100000000011
011100111001
010010101100
000111011010
000001101001
000100100011
001110101011
011010000001
100000000000
011101001110
010011010000
000111111000
000001101101
000100010001
001110000111
011001100100
011111111001
011101100010
010011110010
001000010110
000001110011
000011111010
001101100100
011001000101
011111110011
011101111000
010100010101
001000110101
000001111010
000011101000
001101000000
011000100111
011111101011
011110001010
010100111010
001001010011
000010000100
000011010110
001100011110
011000000110
011111100000
011110011100
010101011100
001001110011
000010001111
000011000111
001011111101
010111101001
011111010110
011110101011
010101111111
001010010010
000010011100
000010111000
001011010110
010111000101
011111001001
011110111011
010110100000
001010110101
000010101001
000010100110
001010111000
010110100100
011110111011
011111000111
010111000011
001011010010
000010111000
000010011001
001010010111
010110000011
011110101010
011111010100
010111100010
001011110111
000011000100
000010010000
001001110101
010101100000
011110011010
011111011110
011000000111
001100011011
000011011000
000010000101
001001010110
010100111111
011110001001
011111101010
011000100011
001100111011
000011100110
000001111100
001000111000
010100011011
011101111001
011111110011
011001000010
001101100001
000011111010
000001110011
001000010110
010011110111
011101100011
011111111001
011001011111
001110000011
000100001101
000001101100
000111111010
010011010011
011101010001
100000000000
011001111101
001110101001
000100100010
000001100110
000111011110
010010110001
011100111010
100000000100
011010011101
001111001101
000100111010
000001100010
000111000001
010010001110
011100100010
100000001001
011010111000
001111110000
000101010011
000001100010
000110100100
010001101000
011100001100
100000001010
011011010011
010000010001
000101101011
000001100000
000110001011
010001000110
011011110100
100000001010
011011101101
010000111001
000110000010
000001011100
000101110001
010000011101
011011011001
100000001001
011100000100
010001011011
000110011110
000001011101
000101010111
001111111100
011010111101
100000000111
011100011110
010010000000
000110111010
000001100000
000101000010
001111010111
011010100011
100000000111
011100110010
010010100100
000111010101
000001101000
000100101000
001110110011
011010000110
100000000000
011101001010
010011001001
000111110010
000001101100
000100010101
001110010001
011001101011
011111111011
011101011101
010011101100
001000001101
000001110001
000011111111
001101101011
011001001101
011111110101
011101110100
010100001111
001000101110
000001111011
000011101111
001101000111
011000101011
011111101011
011110000111
010100110100
001001001110
000010000100
000011011010
001100100011
011000001101
011111100001
011110011001
010101010111
001001101101
000010001100
000011001000
001100000011
010111101110
011111011000
011110101000
010101111001
001010001011
000010011000
000010111011
001011100000
010111001011
011111001011
011110110111
010110011010
001010101101
000010100100
000010101100
001010111101
010110101100
011110111101
011111000011
010110111110
001011001111
000010110010
000010011100
001010011100
010110001010
011110110000
011111010011
010111011011
001011110010
000011000010
000010010011
001001111010
010101100111
011110011111
011111011111
010111111100
001100010010
000011010011
000010001000
001001011011
010101000110
011110010000
011111100111
011000011110
001100110110
000011100100
000001111100
001000111110
010100100101
011101111010
011111101111
011000111110
001101011001
000011110110
000001110100
001000011011
010011111110
011101100111
011111111010
011001011001
001101111100
000100001010
000001101110
000111111110
010011011111
011101010101
011111111100
011001111001
001110100010
000100100000
000001101000
000111100001
010010111000
011100111101
100000000010
011010010111
001111000100
000100110100
000001100010
000111000111
010010010010
011100101011
100000000111
011010110010
001111100111
000101001011
000001100000
000110101010
010001110001
011100010001
100000001010
011011001111
010000001100
000101100011
000001011110
000110001110
010001001011
011011110111
100000001010
011011100101
010000110001
000101111111
000001011110
000101110101
010000101000
011011011111
100000001011
011011111110
010001010101
000110011010
000001011100
000101011011
010000000101
011011000100
100000000111
011100011000
010001111001
000110110010
000001100001
000101000101
001111011110
011010101001
100000000110
011100110001
010010011110
000111010000
000001100101
000100110000
001110111100
011010001011
100000000011
011101000111
010011000000
000111101010
000001101011
000100010110
001110010110
011001110010
011111111100
011101011011
010011100100
001000001010
000001110011
000100000101
001101110010
011001010100
011111110111
011101101101
010100001000
001000100111
000001111000
000011110010
001101001110
011000110100
011111101011
011110000001
010100101011
001001001000
000010000000
000011100001
001100101101
011000010100
011111100100
011110010100
010101001110
001001100110
000010001100
000011001010
001100001010
010111110101
011111011010
011110100100
010101110000
001010000101
000010010101
000010111100
001011101010
010111010100
011111001100
011110110110
010110010011
001010100111
000010100011
000010110000
001011000110
010110110011
011110111111
011111000010
010110110101
001011000101
000010110000
000010011110
001010100011
010110010010
011110110100
011111010000
010111010100
001011101000
000011000000
000010010101
001010000001
010101110000
011110100011
011111011100
010111110101
001100001100
000011010000
000010001001
001001100011
010101001011
011110010011
011111100011
011000010101
001100101110
000011100010
000001111100
001001000100
010100101010
011101111111
011111110001
011000110110
001101010000
000011110100
000001110111
001000100110
010100000110
011101101110
011111110100
011001010011
001101110100
000100000110
000001110000
001000000110
010011100101
011101010111
011111111110
011001110010
001110010110
000100011100
000001101001
000111100110
010010111111
011101000011
100000000010
011010001111
001110111011
000100110010
000001100101
000111001010
010010011100
011100101101
100000000101
011010101010
001111100001
000101001001
000001100011
000110110000
010001110110
011100010111
100000001001
011011000110
010000000100
000101011111
000001011110
000110010111
010001010011
011011111110
100000001100
011011100001
010000100111
000101110111
000001011101
000101111100
010000110001
011011100100
100000001100
011011111100
010001001101
000110010010
000001100000
000101100001
010000001011
011011001001
100000001010
011100010011
010001101110
000110101111
000001100001
000101001010
001111100101
011010101101
100000000111
011100101100
010010010111
000111000111
000001100111
000100110010
001111000001
011010010010
100000000010
011101000001
010010111010
000111100101
000001101010
000100011111
001110100001
011001110100
011111111100
011101011000
010011011100
001000000010
000001101111
000100001001
001101111010
011001011001
011111111001
011101101010
010011111110
001000011111
000001110110
000011110100
001101010101
011000111010
011111101101
011110000000
010100100110
001000111111
000001111100
000011100000
001100110101
011000011011
011111100101
011110010000
010101001000
001001011101
000010000111
000011001111
001100010000
010111111011
011111011100
011110100001
010101101000
001010000000
000010010100
000010111111
001011110001
010111011100
011111010000
011110110000
010110001011
001010011101
000010100001
000010101110
001011001011
010110111001
011111000011
011111000000
010110110000
001011000000
000010101110
000010100100
001010101100
010110010101
011110110100
011111001110
010111001111
001011100001
000010111011
000010011000
001010001010
010101110101
011110100101
011111011010
010111101110
001100000100
000011001010
000010001100
001001101011
010101010011
011110010100
011111100100
011000010010
001100101000
000011011110
000010000001
001001001001
010100110000
011110000101
011111101011
011000101110
001101001011
000011110000
000001110110
001000101010
010100001111
011101110001
011111110100
011001001111
001101101100
000100000001
000001110000
001000001100
010011101011
011101011110
011111111110
011001101011
001110001111
000100010111
000001101010
000111101100
010011000101
011101000111
100000000001
011010001001
001110110110
000100101110
000001100100
000111010010
010010100011
011100110000
100000000110
011010100111
001111011000
000101000100
000001100010
000110111000
010010000001
011100011010
100000001011
011011000010
001111111100
000101011011
000001011111
000110011100
010001011100
011100000100
100000001011
011011011101
010000100000
000101110101
000001100000
000110000001
010000110101
011011101001
100000001010
011011110111
010001000110
000110001100
000001100001
000101100101
010000010000
011011010011
100000001000
011100010000
010001101001
000110100110
000001011110
000101001110
001111101111
011010110101
100000000111
011100101000
010010001101
000111000010
000001100100
000100111000
001111001001
011010011010
100000000011
011100111101
010010110011
000111011101
000001101001
000100100000
001110101000
011001111011
011111111111
011101010100
010011010101
000111111011
000001110000
000100001011
001110000000
011001100000
011111111000
011101100101
010011111010
001000011010
000001110100
000011111001
001101011111
011000111111
011111110010
011101111010
010100011100
001000111011
000001111101
000011100101
001100111100
011000100011
011111100111
011110001100
010101000010
001001010110
000010000101
000011010010
001100011000
011000000011
011111011100
011110100001
010101100101
001001110110
000010010000
000011000100
001011110111
010111100000
011111010011
011110101111
010110000100
001010010110
000010011111
000010110010
001011010010
010111000010
011111000100
011110111011
010110101000
001010111011
000010101011
000010100100
001010110010
010110011101
011110111010
011111001011
010111001001
001011011001
000010110110
000010011001
001010010001
010101111111
011110101010
011111010101
010111101001
001011111011
000011000111
000010001100
001001110000
010101011100
011110011001
011111100001
011000001001
001100011110
000011010111
000010000001
001001010010
010100110111
011110001011
011111101011
011000101011
001101000011
000011101011
000001111000
001000110010
010100010011
011101110110
011111110101
011001001001
001101100111
000011111101
000001110010
001000010001
010011110000
011101100001
011111111101
011001100111
001110001001
000100010011
000001101011
000111110101
010011010000
011101001100
100000000001
011010000100
001110101101
000100100101
000001100111
000111011000
010010101001
011100111001
100000000101
011010011110
001111010010
000100111101
000001100011
000110111011
010010001001
011100011110
100000001001
011010111101
001111110101
000101010111
000001011101
000110100010
010001100010
011100001000
100000001011
011011010111
010000010111
000101101111
000001100000
000110000111
010000111101
011011101101
100000001010
011011110001
010000111111
000110001000
000001011101
000101101110
010000011010
011011010111
100000001001
011100001000
010001100001
000110100001
000001100001
000101010110
001111110110
011010111010
100000001000
011100100001
010010000100
000110111101
000001100100
000100111110
001111010001
011010011110
100000000101
011100111001
010010101000
000111011001
000001101001
000100100110
001110101110
011010000011
100000000001
011101001101
010011001110
000111111000
000001101100
000100001111
001110001011
011001100111
011111111011
011101100001
010011110001
001000010100
000001110011
000011111011
001101100100
011001000101
011111110010
011101111000
010100010101
001000110001
000001111010
000011101001
001101000100
011000101000
011111101001
011110001000
010100110110
001001010010
000010000011
000011011010
001100011111
011000000110
011111100000
011110011010
010101011011
001001110010
000010001111
000011000101
001011111101
010111101010
011111010111
011110101010
010101111110
001010010000
000010011011
000010110111
001011011001
010111001001
011111001001
011110111010
010110100000
001010110011
000010101000
000010101001
001010111011
010110100110
011110111110
011111000111
010111000001
001011010010
000010111000
000010011011
001010011001
010110000100
011110101111
011111010011
010111100010
001011110110
000011000101
000010001111
001001110111
010101100010
011110011010
011111011110
011000000010
001100010111
000011010100
000010000110
001001010110
010100111110
011110001010
011111101000
011000100001
001100111101
000011101001
000001111101
001000110111
010100011111
011101111001
011111110011
011001000000
001101100001
000011111011
000001110010
001000011000
010011111001
011101100110
011111111010
011001100001
001110000010
000100001101
000001101111
